Directional Change Ideas - NutNet
…
plot.sp.mat %>% 
  filter(site_code == "elliot.us") %>%
  group_by(year, block) %>% 
  dplyr::summarise(count = n()) %>%
  arrange(count)

## # A tibble: 27 x 3
## # Groups:   year [9]
##     year block count
##    <int> <int> <int>
##  1  2014     1     8
##  2  2014     2     8
##  3  2014     3     9
##  4  2008     1    10
##  5  2008     2    10
##  6  2008     3    10
##  7  2009     1    10
##  8  2009     2    10
##  9  2009     3    10
## 10  2010     1    10
## # ... with 17 more rows
…
